%YAML 1.1
%TAG !u! tag:unity3d.com,2011:
--- !u!1 &6347805767872647448
GameObject:
  m_ObjectHideFlags: 0
  m_CorrespondingSourceObject: {fileID: 0}
  m_PrefabInstance: {fileID: 0}
  m_PrefabAsset: {fileID: 0}
  serializedVersion: 6
  m_Component:
  - component: {fileID: 3262357877265260170}
  m_Layer: 0
  m_Name: GhostThruster-old
  m_TagString: Untagged
  m_Icon: {fileID: 0}
  m_NavMeshLayer: 0
  m_StaticEditorFlags: 0
  m_IsActive: 1
--- !u!4 &3262357877265260170
Transform:
  m_ObjectHideFlags: 0
  m_CorrespondingSourceObject: {fileID: 0}
  m_PrefabInstance: {fileID: 0}
  m_PrefabAsset: {fileID: 0}
  m_GameObject: {fileID: 6347805767872647448}
  m_LocalRotation: {x: 0, y: 0, z: 0, w: 1}
  m_LocalPosition: {x: 0, y: 0, z: 0}
  m_LocalScale: {x: 1, y: 1, z: 1}
  m_Children:
  - {fileID: 4837548859430775151}
  m_Father: {fileID: 0}
  m_RootOrder: 0
  m_LocalEulerAnglesHint: {x: 0, y: 0, z: 0}
--- !u!1001 &4947437784731930244
PrefabInstance:
  m_ObjectHideFlags: 0
  serializedVersion: 2
  m_Modification:
    m_TransformParent: {fileID: 3262357877265260170}
    m_Modifications:
    - target: {fileID: -8679921383154817045, guid: 3be76ed1a2c37794d9ad7e062876c1aa, type: 3}
      propertyPath: m_RootOrder
      value: 0
      objectReference: {fileID: 0}
    - target: {fileID: -8679921383154817045, guid: 3be76ed1a2c37794d9ad7e062876c1aa, type: 3}
      propertyPath: m_LocalPosition.x
      value: -0
      objectReference: {fileID: 0}
    - target: {fileID: -8679921383154817045, guid: 3be76ed1a2c37794d9ad7e062876c1aa, type: 3}
      propertyPath: m_LocalPosition.y
      value: 0
      objectReference: {fileID: 0}
    - target: {fileID: -8679921383154817045, guid: 3be76ed1a2c37794d9ad7e062876c1aa, type: 3}
      propertyPath: m_LocalPosition.z
      value: 0
      objectReference: {fileID: 0}
    - target: {fileID: -8679921383154817045, guid: 3be76ed1a2c37794d9ad7e062876c1aa, type: 3}
      propertyPath: m_LocalRotation.w
      value: 0.7071068
      objectReference: {fileID: 0}
    - target: {fileID: -8679921383154817045, guid: 3be76ed1a2c37794d9ad7e062876c1aa, type: 3}
      propertyPath: m_LocalRotation.x
      value: 0
      objectReference: {fileID: 0}
    - target: {fileID: -8679921383154817045, guid: 3be76ed1a2c37794d9ad7e062876c1aa, type: 3}
      propertyPath: m_LocalRotation.y
      value: -0.7071068
      objectReference: {fileID: 0}
    - target: {fileID: -8679921383154817045, guid: 3be76ed1a2c37794d9ad7e062876c1aa, type: 3}
      propertyPath: m_LocalRotation.z
      value: 0
      objectReference: {fileID: 0}
    - target: {fileID: -8679921383154817045, guid: 3be76ed1a2c37794d9ad7e062876c1aa, type: 3}
      propertyPath: m_LocalEulerAnglesHint.x
      value: 0
      objectReference: {fileID: 0}
    - target: {fileID: -8679921383154817045, guid: 3be76ed1a2c37794d9ad7e062876c1aa, type: 3}
      propertyPath: m_LocalEulerAnglesHint.y
      value: -90
      objectReference: {fileID: 0}
    - target: {fileID: -8679921383154817045, guid: 3be76ed1a2c37794d9ad7e062876c1aa, type: 3}
      propertyPath: m_LocalEulerAnglesHint.z
      value: 0
      objectReference: {fileID: 0}
    - target: {fileID: -7511558181221131132, guid: 3be76ed1a2c37794d9ad7e062876c1aa, type: 3}
      propertyPath: m_Materials.Array.data[0]
      value: 
      objectReference: {fileID: 2100000, guid: 7d3f448e4a6f0884185aff76f8eec726, type: 2}
    - target: {fileID: 919132149155446097, guid: 3be76ed1a2c37794d9ad7e062876c1aa, type: 3}
      propertyPath: m_Name
      value: ThrusterMesh
      objectReference: {fileID: 0}
    m_RemovedComponents: []
  m_SourcePrefab: {fileID: 100100000, guid: 3be76ed1a2c37794d9ad7e062876c1aa, type: 3}
--- !u!4 &4837548859430775151 stripped
Transform:
  m_CorrespondingSourceObject: {fileID: -8679921383154817045, guid: 3be76ed1a2c37794d9ad7e062876c1aa, type: 3}
  m_PrefabInstance: {fileID: 4947437784731930244}
  m_PrefabAsset: {fileID: 0}
