%YAML 1.1
%TAG !u! tag:unity3d.com,2011:
--- !u!1001 &3553249909183832578
PrefabInstance:
  m_ObjectHideFlags: 0
  serializedVersion: 2
  m_Modification:
    m_TransformParent: {fileID: 0}
    m_Modifications:
    - target: {fileID: 606688447831490274, guid: 13c23d5688c68a448a0a9634a0e0d734, type: 3}
      propertyPath: m_RootOrder
      value: 0
      objectReference: {fileID: 0}
    - target: {fileID: 606688447831490274, guid: 13c23d5688c68a448a0a9634a0e0d734, type: 3}
      propertyPath: m_LocalPosition.x
      value: 0
      objectReference: {fileID: 0}
    - target: {fileID: 606688447831490274, guid: 13c23d5688c68a448a0a9634a0e0d734, type: 3}
      propertyPath: m_LocalPosition.y
      value: 0
      objectReference: {fileID: 0}
    - target: {fileID: 606688447831490274, guid: 13c23d5688c68a448a0a9634a0e0d734, type: 3}
      propertyPath: m_LocalPosition.z
      value: 0
      objectReference: {fileID: 0}
    - target: {fileID: 606688447831490274, guid: 13c23d5688c68a448a0a9634a0e0d734, type: 3}
      propertyPath: m_LocalRotation.w
      value: 1
      objectReference: {fileID: 0}
    - target: {fileID: 606688447831490274, guid: 13c23d5688c68a448a0a9634a0e0d734, type: 3}
      propertyPath: m_LocalRotation.x
      value: 0
      objectReference: {fileID: 0}
    - target: {fileID: 606688447831490274, guid: 13c23d5688c68a448a0a9634a0e0d734, type: 3}
      propertyPath: m_LocalRotation.y
      value: 0
      objectReference: {fileID: 0}
    - target: {fileID: 606688447831490274, guid: 13c23d5688c68a448a0a9634a0e0d734, type: 3}
      propertyPath: m_LocalRotation.z
      value: 0
      objectReference: {fileID: 0}
    - target: {fileID: 606688447831490274, guid: 13c23d5688c68a448a0a9634a0e0d734, type: 3}
      propertyPath: m_LocalEulerAnglesHint.x
      value: 0
      objectReference: {fileID: 0}
    - target: {fileID: 606688447831490274, guid: 13c23d5688c68a448a0a9634a0e0d734, type: 3}
      propertyPath: m_LocalEulerAnglesHint.y
      value: 0
      objectReference: {fileID: 0}
    - target: {fileID: 606688447831490274, guid: 13c23d5688c68a448a0a9634a0e0d734, type: 3}
      propertyPath: m_LocalEulerAnglesHint.z
      value: 0
      objectReference: {fileID: 0}
    - target: {fileID: 606688447831490275, guid: 13c23d5688c68a448a0a9634a0e0d734, type: 3}
      propertyPath: truthTable.Array.size
      value: 2
      objectReference: {fileID: 0}
    - target: {fileID: 606688447831490275, guid: 13c23d5688c68a448a0a9634a0e0d734, type: 3}
      propertyPath: truthTable.Array.data[1]._value
      value: 1
      objectReference: {fileID: 0}
    - target: {fileID: 606688447831490277, guid: 13c23d5688c68a448a0a9634a0e0d734, type: 3}
      propertyPath: m_Name
      value: BitManualInput
      objectReference: {fileID: 0}
    - target: {fileID: 5108794410869685373, guid: 13c23d5688c68a448a0a9634a0e0d734, type: 3}
      propertyPath: m_IsActive
      value: 0
      objectReference: {fileID: 0}
    m_RemovedComponents: []
  m_SourcePrefab: {fileID: 100100000, guid: 13c23d5688c68a448a0a9634a0e0d734, type: 3}
--- !u!4 &4117642573160602848 stripped
Transform:
  m_CorrespondingSourceObject: {fileID: 606688447831490274, guid: 13c23d5688c68a448a0a9634a0e0d734, type: 3}
  m_PrefabInstance: {fileID: 3553249909183832578}
  m_PrefabAsset: {fileID: 0}
--- !u!1001 &4534156935394144837
PrefabInstance:
  m_ObjectHideFlags: 0
  serializedVersion: 2
  m_Modification:
    m_TransformParent: {fileID: 4117642573160602848}
    m_Modifications:
    - target: {fileID: 1018370732781602873, guid: 2412e639538981943a3c890b0b5fb011, type: 3}
      propertyPath: m_Name
      value: InputButtons
      objectReference: {fileID: 0}
    - target: {fileID: 1216492110892269625, guid: 2412e639538981943a3c890b0b5fb011, type: 3}
      propertyPath: numberOfConnectors
      value: 1
      objectReference: {fileID: 0}
    - target: {fileID: 4081983084463619624, guid: 2412e639538981943a3c890b0b5fb011, type: 3}
      propertyPath: m_RootOrder
      value: 4
      objectReference: {fileID: 0}
    - target: {fileID: 4081983084463619624, guid: 2412e639538981943a3c890b0b5fb011, type: 3}
      propertyPath: m_LocalPosition.x
      value: 0
      objectReference: {fileID: 0}
    - target: {fileID: 4081983084463619624, guid: 2412e639538981943a3c890b0b5fb011, type: 3}
      propertyPath: m_LocalPosition.y
      value: 0
      objectReference: {fileID: 0}
    - target: {fileID: 4081983084463619624, guid: 2412e639538981943a3c890b0b5fb011, type: 3}
      propertyPath: m_LocalPosition.z
      value: 0.5605
      objectReference: {fileID: 0}
    - target: {fileID: 4081983084463619624, guid: 2412e639538981943a3c890b0b5fb011, type: 3}
      propertyPath: m_LocalRotation.w
      value: 1
      objectReference: {fileID: 0}
    - target: {fileID: 4081983084463619624, guid: 2412e639538981943a3c890b0b5fb011, type: 3}
      propertyPath: m_LocalRotation.x
      value: 0
      objectReference: {fileID: 0}
    - target: {fileID: 4081983084463619624, guid: 2412e639538981943a3c890b0b5fb011, type: 3}
      propertyPath: m_LocalRotation.y
      value: 0
      objectReference: {fileID: 0}
    - target: {fileID: 4081983084463619624, guid: 2412e639538981943a3c890b0b5fb011, type: 3}
      propertyPath: m_LocalRotation.z
      value: 0
      objectReference: {fileID: 0}
    - target: {fileID: 4081983084463619624, guid: 2412e639538981943a3c890b0b5fb011, type: 3}
      propertyPath: m_LocalEulerAnglesHint.x
      value: 0
      objectReference: {fileID: 0}
    - target: {fileID: 4081983084463619624, guid: 2412e639538981943a3c890b0b5fb011, type: 3}
      propertyPath: m_LocalEulerAnglesHint.y
      value: 0
      objectReference: {fileID: 0}
    - target: {fileID: 4081983084463619624, guid: 2412e639538981943a3c890b0b5fb011, type: 3}
      propertyPath: m_LocalEulerAnglesHint.z
      value: 0
      objectReference: {fileID: 0}
    m_RemovedComponents: []
  m_SourcePrefab: {fileID: 100100000, guid: 2412e639538981943a3c890b0b5fb011, type: 3}
