%YAML 1.1
%TAG !u! tag:unity3d.com,2011:
--- !u!1001 &416860365446232237
PrefabInstance:
  m_ObjectHideFlags: 0
  serializedVersion: 2
  m_Modification:
    m_TransformParent: {fileID: 0}
    m_Modifications:
    - target: {fileID: 2858795849459027962, guid: 3dc5d3e086262ae4797da62e2f93e894, type: 3}
      propertyPath: m_RootOrder
      value: 0
      objectReference: {fileID: 0}
    - target: {fileID: 2858795849459027962, guid: 3dc5d3e086262ae4797da62e2f93e894, type: 3}
      propertyPath: m_LocalPosition.x
      value: 0
      objectReference: {fileID: 0}
    - target: {fileID: 2858795849459027962, guid: 3dc5d3e086262ae4797da62e2f93e894, type: 3}
      propertyPath: m_LocalPosition.y
      value: 0
      objectReference: {fileID: 0}
    - target: {fileID: 2858795849459027962, guid: 3dc5d3e086262ae4797da62e2f93e894, type: 3}
      propertyPath: m_LocalPosition.z
      value: 0
      objectReference: {fileID: 0}
    - target: {fileID: 2858795849459027962, guid: 3dc5d3e086262ae4797da62e2f93e894, type: 3}
      propertyPath: m_LocalRotation.w
      value: 1
      objectReference: {fileID: 0}
    - target: {fileID: 2858795849459027962, guid: 3dc5d3e086262ae4797da62e2f93e894, type: 3}
      propertyPath: m_LocalRotation.x
      value: 0
      objectReference: {fileID: 0}
    - target: {fileID: 2858795849459027962, guid: 3dc5d3e086262ae4797da62e2f93e894, type: 3}
      propertyPath: m_LocalRotation.y
      value: 0
      objectReference: {fileID: 0}
    - target: {fileID: 2858795849459027962, guid: 3dc5d3e086262ae4797da62e2f93e894, type: 3}
      propertyPath: m_LocalRotation.z
      value: 0
      objectReference: {fileID: 0}
    - target: {fileID: 2858795849459027962, guid: 3dc5d3e086262ae4797da62e2f93e894, type: 3}
      propertyPath: m_LocalEulerAnglesHint.x
      value: 0
      objectReference: {fileID: 0}
    - target: {fileID: 2858795849459027962, guid: 3dc5d3e086262ae4797da62e2f93e894, type: 3}
      propertyPath: m_LocalEulerAnglesHint.y
      value: 0
      objectReference: {fileID: 0}
    - target: {fileID: 2858795849459027962, guid: 3dc5d3e086262ae4797da62e2f93e894, type: 3}
      propertyPath: m_LocalEulerAnglesHint.z
      value: 0
      objectReference: {fileID: 0}
    - target: {fileID: 2858795849459027963, guid: 3dc5d3e086262ae4797da62e2f93e894, type: 3}
      propertyPath: truthTable.Array.size
      value: 16
      objectReference: {fileID: 0}
    - target: {fileID: 2858795849459027963, guid: 3dc5d3e086262ae4797da62e2f93e894, type: 3}
      propertyPath: truthTable.Array.data[1]._value
      value: 1
      objectReference: {fileID: 0}
    - target: {fileID: 2858795849459027963, guid: 3dc5d3e086262ae4797da62e2f93e894, type: 3}
      propertyPath: truthTable.Array.data[2]._value
      value: 3
      objectReference: {fileID: 0}
    - target: {fileID: 2858795849459027963, guid: 3dc5d3e086262ae4797da62e2f93e894, type: 3}
      propertyPath: truthTable.Array.data[3]._value
      value: 1
      objectReference: {fileID: 0}
    - target: {fileID: 2858795849459027963, guid: 3dc5d3e086262ae4797da62e2f93e894, type: 3}
      propertyPath: truthTable.Array.data[4]._value
      value: 1
      objectReference: {fileID: 0}
    - target: {fileID: 2858795849459027963, guid: 3dc5d3e086262ae4797da62e2f93e894, type: 3}
      propertyPath: truthTable.Array.data[5]._value
      value: 1
      objectReference: {fileID: 0}
    - target: {fileID: 2858795849459027963, guid: 3dc5d3e086262ae4797da62e2f93e894, type: 3}
      propertyPath: truthTable.Array.data[6]._value
      value: 1
      objectReference: {fileID: 0}
    - target: {fileID: 2858795849459027963, guid: 3dc5d3e086262ae4797da62e2f93e894, type: 3}
      propertyPath: truthTable.Array.data[7]._value
      value: 1
      objectReference: {fileID: 0}
    - target: {fileID: 2858795849459027963, guid: 3dc5d3e086262ae4797da62e2f93e894, type: 3}
      propertyPath: truthTable.Array.data[8]._value
      value: 1
      objectReference: {fileID: 0}
    - target: {fileID: 2858795849459027963, guid: 3dc5d3e086262ae4797da62e2f93e894, type: 3}
      propertyPath: truthTable.Array.data[9]._value
      value: 1
      objectReference: {fileID: 0}
    - target: {fileID: 2858795849459027963, guid: 3dc5d3e086262ae4797da62e2f93e894, type: 3}
      propertyPath: truthTable.Array.data[10]._value
      value: 1
      objectReference: {fileID: 0}
    - target: {fileID: 2858795849459027963, guid: 3dc5d3e086262ae4797da62e2f93e894, type: 3}
      propertyPath: truthTable.Array.data[11]._value
      value: 1
      objectReference: {fileID: 0}
    - target: {fileID: 2858795849459027963, guid: 3dc5d3e086262ae4797da62e2f93e894, type: 3}
      propertyPath: truthTable.Array.data[12]._value
      value: 1
      objectReference: {fileID: 0}
    - target: {fileID: 2858795849459027963, guid: 3dc5d3e086262ae4797da62e2f93e894, type: 3}
      propertyPath: truthTable.Array.data[13]._value
      value: 1
      objectReference: {fileID: 0}
    - target: {fileID: 2858795849459027963, guid: 3dc5d3e086262ae4797da62e2f93e894, type: 3}
      propertyPath: truthTable.Array.data[14]._value
      value: 1
      objectReference: {fileID: 0}
    - target: {fileID: 2858795849459027963, guid: 3dc5d3e086262ae4797da62e2f93e894, type: 3}
      propertyPath: truthTable.Array.data[15]._value
      value: 1
      objectReference: {fileID: 0}
    - target: {fileID: 2858795849459027965, guid: 3dc5d3e086262ae4797da62e2f93e894, type: 3}
      propertyPath: m_Name
      value: OrGate4
      objectReference: {fileID: 0}
    m_RemovedComponents: []
  m_SourcePrefab: {fileID: 100100000, guid: 3dc5d3e086262ae4797da62e2f93e894, type: 3}
