%YAML 1.1
%TAG !u! tag:unity3d.com,2011:
--- !u!162 &1
EditorUserSettings:
  m_ObjectHideFlags: 0
  serializedVersion: 4
  m_ConfigSettings:
    RecentlyUsedScenePath-0:
      value: 22424703114646720307181615304b231512162f7a7b7167757d4561b5b8646bb1bf61b1b66f7129370bfb25
      flags: 0
    RecentlyUsedScenePath-1:
      value: 22424703114646720307181615304b231512162f7a7b7167757f4f6bb2b8626fb4bf60bab46e7129370bfb25
      flags: 0
    RecentlyUsedScenePath-2:
      value: 22424703114646720307181615304b231512162f7a7b7167757f4f6bb6b3636db4b462b1be697129370bfb25
      flags: 0
    RecentlyUsedScenePath-3:
      value: 22424703114646720307181615304b231512162f7a7b7167757f4f6ab3b9626cb4b566bdb66c7129370bfb25
      flags: 0
    RecentlyUsedScenePath-4:
      value: 224247031146466f05071e2600224d040f583b232d3c2e2937285214f0e9303aedff76d9f5352b332d1bff394413002bf718000afa18452f1403f24121ed1f071ed101d51f88321ddf1c0ec7cc11c2a3f1d3d9e596fee9d1cac6
      flags: 0
    RecentlyUsedScenePath-5:
      value: 22424703114646680e0b0227036c6c111b07142f1f2b233e2867083debf42d
      flags: 0
    vcSharedLogLevel:
      value: 0d5e400f0650
      flags: 0
  m_VCAutomaticAdd: 1
  m_VCDebugCom: 0
  m_VCDebugCmd: 0
  m_VCDebugOut: 0
  m_SemanticMergeMode: 2
  m_VCShowFailedCheckout: 1
  m_VCOverwriteFailedCheckoutAssets: 1
  m_VCProjectOverlayIcons: 1
  m_VCHierarchyOverlayIcons: 1
  m_VCOtherOverlayIcons: 1
  m_VCAllowAsyncUpdate: 1
